%YAML 1.1
%TAG !u! tag:unity3d.com,2011:
--- !u!1001 &100100000
Prefab:
  m_ObjectHideFlags: 1
  serializedVersion: 2
  m_Modification:
    m_TransformParent: {fileID: 0}
    m_Modifications: []
    m_RemovedComponents: []
  m_SourcePrefab: {fileID: 0}
  m_RootGameObject: {fileID: 1409626124414412}
  m_IsPrefabAsset: 1
--- !u!1 &1409626124414412
GameObject:
  m_ObjectHideFlags: 0
  m_CorrespondingSourceObject: {fileID: 0}
  m_PrefabInternal: {fileID: 100100000}
  serializedVersion: 6
  m_Component:
  - component: {fileID: 4296778378858824}
  - component: {fileID: 2569400266035471386}
  m_Layer: 31
  m_Name: Placejolder Hub
  m_TagString: Untagged
  m_Icon: {fileID: 0}
  m_NavMeshLayer: 0
  m_StaticEditorFlags: 0
  m_IsActive: 1
--- !u!1 &1532547111107854
GameObject:
  m_ObjectHideFlags: 0
  m_CorrespondingSourceObject: {fileID: 0}
  m_PrefabInternal: {fileID: 100100000}
  serializedVersion: 6
  m_Component:
  - component: {fileID: 4662745338775110}
  - component: {fileID: 8195094281934678802}
  - component: {fileID: 3664157343863949698}
  m_Layer: 31
  m_Name: Layer1
  m_TagString: Untagged
  m_Icon: {fileID: 0}
  m_NavMeshLayer: 0
  m_StaticEditorFlags: 0
  m_IsActive: 1
--- !u!4 &4296778378858824
Transform:
  m_ObjectHideFlags: 1
  m_CorrespondingSourceObject: {fileID: 0}
  m_PrefabInternal: {fileID: 100100000}
  m_GameObject: {fileID: 1409626124414412}
  m_LocalRotation: {x: 0, y: 0, z: 0, w: 1}
  m_LocalPosition: {x: 0, y: 0, z: 0}
  m_LocalScale: {x: 1, y: 1, z: 1}
  m_Children:
  - {fileID: 4662745338775110}
  m_Father: {fileID: 0}
  m_RootOrder: 0
  m_LocalEulerAnglesHint: {x: 0, y: 0, z: 0}
--- !u!4 &4662745338775110
Transform:
  m_ObjectHideFlags: 1
  m_CorrespondingSourceObject: {fileID: 0}
  m_PrefabInternal: {fileID: 100100000}
  m_GameObject: {fileID: 1532547111107854}
  m_LocalRotation: {x: -0, y: -0, z: -0, w: 1}
  m_LocalPosition: {x: 0, y: 0, z: 0}
  m_LocalScale: {x: 1, y: 1, z: 1}
  m_Children: []
  m_Father: {fileID: 4296778378858824}
  m_RootOrder: 0
  m_LocalEulerAnglesHint: {x: 0, y: 0, z: 0}
--- !u!114 &114097217877082626
MonoBehaviour:
  m_ObjectHideFlags: 0
  m_CorrespondingSourceObject: {fileID: 0}
  m_PrefabInternal: {fileID: 0}
  m_GameObject: {fileID: 0}
  m_Enabled: 1
  m_EditorHideFlags: 1
  m_Script: {fileID: 12395, guid: 0000000000000000e000000000000000, type: 0}
  m_Name: Palette Settings
  m_EditorClassIdentifier: 
  cellSizing: 0
--- !u!156049354 &2569400266035471386
Grid:
  m_ObjectHideFlags: 1
  m_CorrespondingSourceObject: {fileID: 0}
  m_PrefabInternal: {fileID: 100100000}
  m_GameObject: {fileID: 1409626124414412}
  m_Enabled: 1
  m_CellSize: {x: 1, y: 1, z: 0}
  m_CellGap: {x: 0, y: 0, z: 0}
  m_CellLayout: 0
  m_CellSwizzle: 0
--- !u!483693784 &3664157343863949698
TilemapRenderer:
  m_ObjectHideFlags: 1
  m_CorrespondingSourceObject: {fileID: 0}
  m_PrefabInternal: {fileID: 100100000}
  m_GameObject: {fileID: 1532547111107854}
  m_Enabled: 0
  m_CastShadows: 0
  m_ReceiveShadows: 0
  m_DynamicOccludee: 0
  m_MotionVectors: 1
  m_LightProbeUsage: 0
  m_ReflectionProbeUsage: 0
  m_RenderingLayerMask: 4294967295
  m_Materials:
  - {fileID: 10754, guid: 0000000000000000f000000000000000, type: 0}
  m_StaticBatchInfo:
    firstSubMesh: 0
    subMeshCount: 0
  m_StaticBatchRoot: {fileID: 0}
  m_ProbeAnchor: {fileID: 0}
  m_LightProbeVolumeOverride: {fileID: 0}
  m_ScaleInLightmap: 1
  m_PreserveUVs: 0
  m_IgnoreNormalsForChartDetection: 0
  m_ImportantGI: 0
  m_StitchLightmapSeams: 0
  m_SelectedEditorRenderState: 0
  m_MinimumChartSize: 4
  m_AutoUVMaxDistance: 0.5
  m_AutoUVMaxAngle: 89
  m_LightmapParameters: {fileID: 0}
  m_SortingLayerID: 0
  m_SortingLayer: 0
  m_SortingOrder: 0
  m_ChunkSize: {x: 32, y: 32, z: 32}
  m_ChunkCullingBounds: {x: 0, y: 0, z: 0}
  m_MaxChunkCount: 16
  m_MaxFrameAge: 16
  m_SortOrder: 0
  m_DetectChunkCullingBounds: 0
  m_MaskInteraction: 0
--- !u!1839735485 &8195094281934678802
Tilemap:
  m_ObjectHideFlags: 1
  m_CorrespondingSourceObject: {fileID: 0}
  m_PrefabInternal: {fileID: 100100000}
  m_GameObject: {fileID: 1532547111107854}
  m_Enabled: 1
  m_Tiles:
  - first: {x: -1, y: -4, z: 0}
    second:
      m_TileIndex: 21
      m_TileSpriteIndex: 21
      m_TileMatrixIndex: 0
      m_TileColorIndex: 0
      m_ObjectToInstantiate: {fileID: 0}
      m_TileFlags: 1
      m_ColliderType: 1
  - first: {x: 0, y: -4, z: 0}
    second:
      m_TileIndex: 22
      m_TileSpriteIndex: 22
      m_TileMatrixIndex: 0
      m_TileColorIndex: 0
      m_ObjectToInstantiate: {fileID: 0}
      m_TileFlags: 1
      m_ColliderType: 1
  - first: {x: -2, y: -3, z: 0}
    second:
      m_TileIndex: 20
      m_TileSpriteIndex: 20
      m_TileMatrixIndex: 0
      m_TileColorIndex: 0
      m_ObjectToInstantiate: {fileID: 0}
      m_TileFlags: 1
      m_ColliderType: 1
  - first: {x: -1, y: -3, z: 0}
    second:
      m_TileIndex: 16
      m_TileSpriteIndex: 16
      m_TileMatrixIndex: 0
      m_TileColorIndex: 0
      m_ObjectToInstantiate: {fileID: 0}
      m_TileFlags: 1
      m_ColliderType: 1
  - first: {x: 0, y: -3, z: 0}
    second:
      m_TileIndex: 15
      m_TileSpriteIndex: 18
      m_TileMatrixIndex: 0
      m_TileColorIndex: 0
      m_ObjectToInstantiate: {fileID: 0}
      m_TileFlags: 1
      m_ColliderType: 1
  - first: {x: 2, y: -3, z: 0}
    second:
      m_TileIndex: 19
      m_TileSpriteIndex: 19
      m_TileMatrixIndex: 0
      m_TileColorIndex: 0
      m_ObjectToInstantiate: {fileID: 0}
      m_TileFlags: 1
      m_ColliderType: 1
  - first: {x: -2, y: -2, z: 0}
    second:
      m_TileIndex: 17
      m_TileSpriteIndex: 17
      m_TileMatrixIndex: 0
      m_TileColorIndex: 0
      m_ObjectToInstantiate: {fileID: 0}
      m_TileFlags: 1
      m_ColliderType: 1
  - first: {x: -1, y: -2, z: 0}
    second:
      m_TileIndex: 14
      m_TileSpriteIndex: 14
      m_TileMatrixIndex: 0
      m_TileColorIndex: 0
      m_ObjectToInstantiate: {fileID: 0}
      m_TileFlags: 1
      m_ColliderType: 1
  - first: {x: 0, y: -2, z: 0}
    second:
      m_TileIndex: 13
      m_TileSpriteIndex: 13
      m_TileMatrixIndex: 0
      m_TileColorIndex: 0
      m_ObjectToInstantiate: {fileID: 0}
      m_TileFlags: 1
      m_ColliderType: 1
  - first: {x: 1, y: -2, z: 0}
    second:
      m_TileIndex: 11
      m_TileSpriteIndex: 12
      m_TileMatrixIndex: 0
      m_TileColorIndex: 0
      m_ObjectToInstantiate: {fileID: 0}
      m_TileFlags: 1
      m_ColliderType: 1
  - first: {x: -3, y: -1, z: 0}
    second:
      m_TileIndex: 6
      m_TileSpriteIndex: 6
      m_TileMatrixIndex: 0
      m_TileColorIndex: 0
      m_ObjectToInstantiate: {fileID: 0}
      m_TileFlags: 1
      m_ColliderType: 1
  - first: {x: -2, y: -1, z: 0}
    second:
      m_TileIndex: 5
      m_TileSpriteIndex: 5
      m_TileMatrixIndex: 0
      m_TileColorIndex: 0
      m_ObjectToInstantiate: {fileID: 0}
      m_TileFlags: 1
      m_ColliderType: 1
  - first: {x: -1, y: -1, z: 0}
    second:
      m_TileIndex: 18
      m_TileSpriteIndex: 15
      m_TileMatrixIndex: 0
      m_TileColorIndex: 0
      m_ObjectToInstantiate: {fileID: 0}
      m_TileFlags: 1
      m_ColliderType: 1
  - first: {x: 0, y: -1, z: 0}
    second:
      m_TileIndex: 10
      m_TileSpriteIndex: 11
      m_TileMatrixIndex: 0
      m_TileColorIndex: 0
      m_ObjectToInstantiate: {fileID: 0}
      m_TileFlags: 1
      m_ColliderType: 1
  - first: {x: 1, y: -1, z: 0}
    second:
      m_TileIndex: 9
      m_TileSpriteIndex: 10
      m_TileMatrixIndex: 0
      m_TileColorIndex: 0
      m_ObjectToInstantiate: {fileID: 0}
      m_TileFlags: 1
      m_ColliderType: 1
  - first: {x: 2, y: -1, z: 0}
    second:
      m_TileIndex: 12
      m_TileSpriteIndex: 9
      m_TileMatrixIndex: 0
      m_TileColorIndex: 0
      m_ObjectToInstantiate: {fileID: 0}
      m_TileFlags: 1
      m_ColliderType: 1
  - first: {x: -2, y: 0, z: 0}
    second:
      m_TileIndex: 0
      m_TileSpriteIndex: 0
      m_TileMatrixIndex: 0
      m_TileColorIndex: 0
      m_ObjectToInstantiate: {fileID: 0}
      m_TileFlags: 1
      m_ColliderType: 1
  - first: {x: -1, y: 0, z: 0}
    second:
      m_TileIndex: 1
      m_TileSpriteIndex: 1
      m_TileMatrixIndex: 0
      m_TileColorIndex: 0
      m_ObjectToInstantiate: {fileID: 0}
      m_TileFlags: 1
      m_ColliderType: 1
  - first: {x: 0, y: 0, z: 0}
    second:
      m_TileIndex: 2
      m_TileSpriteIndex: 2
      m_TileMatrixIndex: 0
      m_TileColorIndex: 0
      m_ObjectToInstantiate: {fileID: 0}
      m_TileFlags: 1
      m_ColliderType: 1
  - first: {x: 1, y: 0, z: 0}
    second:
      m_TileIndex: 3
      m_TileSpriteIndex: 3
      m_TileMatrixIndex: 0
      m_TileColorIndex: 0
      m_ObjectToInstantiate: {fileID: 0}
      m_TileFlags: 1
      m_ColliderType: 1
  - first: {x: 2, y: 0, z: 0}
    second:
      m_TileIndex: 4
      m_TileSpriteIndex: 4
      m_TileMatrixIndex: 0
      m_TileColorIndex: 0
      m_ObjectToInstantiate: {fileID: 0}
      m_TileFlags: 1
      m_ColliderType: 1
  m_AnimatedTiles: {}
  m_TileAssetArray:
  - m_RefCount: 1
    m_Data: {fileID: 11400000, guid: 85bdd6fd4959c0e4ea167ced128ac786, type: 2}
  - m_RefCount: 1
    m_Data: {fileID: 11400000, guid: de7368f3a3e86cc42b3c333b70cc2f59, type: 2}
  - m_RefCount: 1
    m_Data: {fileID: 11400000, guid: b315fd375f268984dae262439367de77, type: 2}
  - m_RefCount: 1
    m_Data: {fileID: 11400000, guid: 31baa512530a36d42a612f918cc703f9, type: 2}
  - m_RefCount: 1
    m_Data: {fileID: 11400000, guid: b52c491a5abc3494ba9d0ab37faf51c9, type: 2}
  - m_RefCount: 1
    m_Data: {fileID: 11400000, guid: a4b94900b3bbe354f930f74d40e9abd8, type: 2}
  - m_RefCount: 1
    m_Data: {fileID: 11400000, guid: c92c5d7b2e079e840a4d24cd55ffaf43, type: 2}
  - m_RefCount: 0
    m_Data: {fileID: 0}
  - m_RefCount: 0
    m_Data: {fileID: 0}
  - m_RefCount: 1
    m_Data: {fileID: 11400000, guid: 8a4034ebdc8e6104dac483f6e075f053, type: 2}
  - m_RefCount: 1
    m_Data: {fileID: 11400000, guid: 99519524767b94a4c9d847157e48949a, type: 2}
  - m_RefCount: 1
    m_Data: {fileID: 11400000, guid: df15e9fcdd0d45e42bdb4fb3f9afb4bf, type: 2}
  - m_RefCount: 1
    m_Data: {fileID: 11400000, guid: f6ff4a0c92627ba479f9d4528bf79727, type: 2}
  - m_RefCount: 1
    m_Data: {fileID: 11400000, guid: 77b6c8725f9a21744aa4505c848e8cf3, type: 2}
  - m_RefCount: 1
    m_Data: {fileID: 11400000, guid: 8a6cfef1d20e8564a86c24ec92c46e21, type: 2}
  - m_RefCount: 1
    m_Data: {fileID: 11400000, guid: bd608232a82b0cb46abb248a794e827a, type: 2}
  - m_RefCount: 1
    m_Data: {fileID: 11400000, guid: acb1245325c82434eaf7d79ab3d171da, type: 2}
  - m_RefCount: 1
    m_Data: {fileID: 11400000, guid: 197b7705f2c84b34f9367e81ea0c5fea, type: 2}
  - m_RefCount: 1
    m_Data: {fileID: 11400000, guid: 362b348c3e62f90488b43e19eeb1c481, type: 2}
  - m_RefCount: 1
    m_Data: {fileID: 11400000, guid: f481d90b18354ef468f7d6dd508965fd, type: 2}
  - m_RefCount: 1
    m_Data: {fileID: 11400000, guid: 88a3c83534235384d8a8447585a3015c, type: 2}
  - m_RefCount: 1
    m_Data: {fileID: 11400000, guid: e33278023ee47f34f9d9188a88f28e08, type: 2}
  - m_RefCount: 1
    m_Data: {fileID: 11400000, guid: 084fb32bf89a42f4ea3c75345d67154d, type: 2}
  m_TileSpriteArray:
  - m_RefCount: 1
    m_Data: {fileID: 21300000, guid: 0aa5255d79b2a1b419ee93ae520cc7fe, type: 3}
  - m_RefCount: 1
    m_Data: {fileID: 21300002, guid: 0aa5255d79b2a1b419ee93ae520cc7fe, type: 3}
  - m_RefCount: 1
    m_Data: {fileID: 21300004, guid: 0aa5255d79b2a1b419ee93ae520cc7fe, type: 3}
  - m_RefCount: 1
    m_Data: {fileID: 21300006, guid: 0aa5255d79b2a1b419ee93ae520cc7fe, type: 3}
  - m_RefCount: 1
    m_Data: {fileID: 21300008, guid: 0aa5255d79b2a1b419ee93ae520cc7fe, type: 3}
  - m_RefCount: 1
    m_Data: {fileID: 21300012, guid: 0aa5255d79b2a1b419ee93ae520cc7fe, type: 3}
  - m_RefCount: 1
    m_Data: {fileID: 21300010, guid: 0aa5255d79b2a1b419ee93ae520cc7fe, type: 3}
  - m_RefCount: 0
    m_Data: {fileID: 0}
  - m_RefCount: 0
    m_Data: {fileID: 0}
  - m_RefCount: 1
    m_Data: {fileID: 21300020, guid: 0aa5255d79b2a1b419ee93ae520cc7fe, type: 3}
  - m_RefCount: 1
    m_Data: {fileID: 21300018, guid: 0aa5255d79b2a1b419ee93ae520cc7fe, type: 3}
  - m_RefCount: 1
    m_Data: {fileID: 21300016, guid: 0aa5255d79b2a1b419ee93ae520cc7fe, type: 3}
  - m_RefCount: 1
    m_Data: {fileID: 21300030, guid: 0aa5255d79b2a1b419ee93ae520cc7fe, type: 3}
  - m_RefCount: 1
    m_Data: {fileID: 21300028, guid: 0aa5255d79b2a1b419ee93ae520cc7fe, type: 3}
  - m_RefCount: 1
    m_Data: {fileID: 21300026, guid: 0aa5255d79b2a1b419ee93ae520cc7fe, type: 3}
  - m_RefCount: 1
    m_Data: {fileID: 21300014, guid: 0aa5255d79b2a1b419ee93ae520cc7fe, type: 3}
  - m_RefCount: 1
    m_Data: {fileID: 21300032, guid: 0aa5255d79b2a1b419ee93ae520cc7fe, type: 3}
  - m_RefCount: 1
    m_Data: {fileID: 21300024, guid: 0aa5255d79b2a1b419ee93ae520cc7fe, type: 3}
  - m_RefCount: 1
    m_Data: {fileID: 21300034, guid: 0aa5255d79b2a1b419ee93ae520cc7fe, type: 3}
  - m_RefCount: 1
    m_Data: {fileID: 21300038, guid: 0aa5255d79b2a1b419ee93ae520cc7fe, type: 3}
  - m_RefCount: 1
    m_Data: {fileID: 21300036, guid: 0aa5255d79b2a1b419ee93ae520cc7fe, type: 3}
  - m_RefCount: 1
    m_Data: {fileID: 21300042, guid: 0aa5255d79b2a1b419ee93ae520cc7fe, type: 3}
  - m_RefCount: 1
    m_Data: {fileID: 21300044, guid: 0aa5255d79b2a1b419ee93ae520cc7fe, type: 3}
  m_TileMatrixArray:
  - m_RefCount: 21
    m_Data:
      e00: 1
      e01: 0
      e02: 0
      e03: 0
      e10: 0
      e11: 1
      e12: 0
      e13: 0
      e20: 0
      e21: 0
      e22: 1
      e23: 0
      e30: 0
      e31: 0
      e32: 0
      e33: 1
  m_TileColorArray:
  - m_RefCount: 21
    m_Data: {r: 1, g: 1, b: 1, a: 1}
  m_AnimationFrameRate: 1
  m_Color: {r: 1, g: 1, b: 1, a: 1}
  m_Origin: {x: -3, y: -4, z: 0}
  m_Size: {x: 6, y: 5, z: 1}
  m_TileAnchor: {x: 0.5, y: 0.5, z: 0}
  m_TileOrientation: 0
  m_TileOrientationMatrix:
    e00: 1
    e01: 0
    e02: 0
    e03: 0
    e10: 0
    e11: 1
    e12: 0
    e13: 0
    e20: 0
    e21: 0
    e22: 1
    e23: 0
    e30: 0
    e31: 0
    e32: 0
    e33: 1
